GLM 2024 - GLM basics
…
Rows: 280 Columns: 3
── Column specification ────────────────────────────────────────────────────────
Delimiter: ","
dbl (3): id, tx, traffic.risk

ℹ Use `spec()` to retrieve the full column specification for this data.
ℹ Specify the column types or set `show_col_types = FALSE` to quiet this message.

Code

example.data <- na.omit(example.data)
example.data

# A tibble: 270 × 3
      id    tx traffic.risk
   <dbl> <dbl>        <dbl>
 1     1     1         1.86
 2     2     1         1   
 3     3     1         3.29
 4     4     1         2   
 5     5     1         2.43
 6     6     1         3.29
 7     7     0         1.17
 8     8     0         2.43
 9     9     0         3   
10    10     1         1.71
# ℹ 260 more rows
…
Nominal/categorical variables do not have any inherent numbers associated with them so we need to assign them numbers

What numbers you assign will impact the equation/estimates/hypothesis you can test

Behoove you to code them as useful numbers. O and 1 are useful and are the default in R.

ANOVA as regression

\[T.risk_i = b_{0} + b_{1}TX_i + e_i\]

Code

example.data

# A tibble: 270 × 3
      id    tx traffic.risk
   <dbl> <dbl>        <dbl>
 1     1     1         1.86
 2     2     1         1   
 3     3     1         3.29
 4     4     1         2   
 5     5     1         2.43
 6     6     1         3.29
 7     7     0         1.17
 8     8     0         2.43
 9     9     0         3   
10    10     1         1.71
# ℹ 260 more rows

Code

library(dplyr)
example.data$tx.r <- as.factor(example.data$tx)
example.data$tx.r <- recode_factor(example.data$tx.r, "0" = "control", "1" = "treatment") 

Create a new variable that is not numeric

Code

example.data

# A tibble: 270 × 4
      id    tx traffic.risk tx.r     
   <dbl> <dbl>        <dbl> <fct>    
 1     1     1         1.86 treatment
 2     2     1         1    treatment
 3     3     1         3.29 treatment
 4     4     1         2    treatment
 5     5     1         2.43 treatment
 6     6     1         3.29 treatment
 7     7     0         1.17 control  
 8     8     0         2.43 control  
 9     9     0         3    control  
10    10     1         1.71 treatment
# ℹ 260 more rows
…
Uses 0s and 1s to put numbers to categories. We will soon see what this looks like when you have more than 2 groups.

Changing the numbers changes…?

Effect coding

Code

example.data$tx.effect <- dplyr::recode(example.data$tx, '0' = -1, '1' = 1) 

Code

example.data

# A tibble: 270 × 5
      id    tx traffic.risk tx.r      tx.effect
   <dbl> <dbl>        <dbl> <fct>         <dbl>
 1     1     1         1.86 treatment         1
 2     2     1         1    treatment         1
 3     3     1         3.29 treatment         1
 4     4     1         2    treatment         1
 5     5     1         2.43 treatment         1
 6     6     1         3.29 treatment         1
 7     7     0         1.17 control          -1
 8     8     0         2.43 control          -1
 9     9     0         3    control          -1
10    10     1         1.71 treatment         1
# ℹ 260 more rows
…
# A tibble: 2 × 5
  term        estimate std.error statistic   p.value
  <chr>          <dbl>     <dbl>     <dbl>     <dbl>
1 (Intercept)    2.65     0.0764     34.7  3.80e-101
2 tx            -0.481    0.0974     -4.94 1.38e-  6

Augment function from the broom package amends the original dataset with lm object content. The new variable names of have a “.” in front of the name to distinguish

Code

fit.1.data <- augment(mod.1) 
fit.1.data

# A tibble: 270 × 8
   traffic.risk    tx .fitted .resid    .hat .sigma  .cooksd .std.resid
          <dbl> <dbl>   <dbl>  <dbl>   <dbl>  <dbl>    <dbl>      <dbl>
 1         1.86     1    2.17 -0.312 0.00602  0.780 0.000490     -0.402
 2         1        1    2.17 -1.17  0.00602  0.777 0.00687      -1.51 
 3         3.29     1    2.17  1.12  0.00602  0.777 0.00626       1.44 
 4         2        1    2.17 -0.170 0.00602  0.780 0.000144     -0.218
 5         2.43     1    2.17  0.259 0.00602  0.780 0.000337      0.334
 6         3.29     1    2.17  1.12  0.00602  0.777 0.00626       1.44 
 7         1.17     0    2.65 -1.48  0.00962  0.775 0.0178       -1.91 
 8         2.43     0    2.65 -0.222 0.00962  0.780 0.000398     -0.287
 9         3        0    2.65  0.349 0.00962  0.780 0.000986      0.451
10         1.71     1    2.17 -0.455 0.00602  0.780 0.00104      -0.586
# ℹ 260 more rows
…
